alookr vignettes: Introduce alookr
…
Split dataset with split_by()

The split_df class is created, which contains the split information and criteria to separate the training and the test set.

library(alookr)
library(dplyr)

# Generate data for the example
sb <- ISLR::Default %>%
  split_by(default, seed = 6534)

sb

# A tibble: 10,000 x 5
# Groups:   split_flag [2]
  default student balance income split_flag
  <fct>   <fct>     <dbl>  <dbl> <chr>     
1 No      No         730. 44362. train     
2 No      Yes        817. 12106. train     
3 No      No        1074. 31767. train     
4 No      No         529. 35704. train     
#  with 9,996 more rows
…
# A tibble: 4 x 5
  variable level train  test abs_diff
  <chr>    <fct> <dbl> <dbl>    <dbl>
1 default  No    96.7  96.7   0.00476
2 default  Yes    3.33  3.33  0.00476
3 student  No    70.0  71.8   1.77   
4 student  Yes   30.0  28.2   1.77   

# display marginal
sb %>%
  compare_target_category(margin = TRUE)

# A tibble: 6 x 5
  variable level    train   test abs_diff
  <chr>    <fct>    <dbl>  <dbl>    <dbl>
1 default  No       96.7   96.7   0.00476
2 default  Yes       3.33   3.33  0.00476
3 default  <Total> 100    100     0.00952
4 student  No       70.0   71.8   1.77   
#  with 2 more rows
…
For objects created with run_models(), the value of the variable is 1.Fitted.

model_id : model identifiers

target : name of target variable

positive : positive class in target variable

fitted_model : list. Fitted model object by model_ids algorithms

result <- train %>% 
  run_models(target = "Class", positive = "malignant")
result

# A tibble: 7 x 7
  step     model_id    target is_factor positive negative fitted_model
  <chr>    <chr>       <chr>  <lgl>     <chr>    <chr>    <list>      
1 1.Fitted logistic    Class  TRUE      maligna benign   <glm>       
2 1.Fitted rpart       Class  TRUE      maligna benign   <rpart>     
3 1.Fitted ctree       Class  TRUE      maligna benign   <BinaryTr>  
4 1.Fitted randomFore Class  TRUE      maligna benign   <rndmFrs.>  
#  with 3 more rows
…
model_id : character. Type of fit model.

target : character. Name of target variable.

positive : character. Level of positive class of binary classification.

fitted_model : list. Fitted model object by model_ids algorithms.

predicted : result of predcit by each models

pred <- result %>%
  run_predict(test)
pred

# A tibble: 7 x 8
  step      model_id   target is_factor positive negative fitted_model
  <chr>     <chr>      <chr>  <lgl>     <chr>    <chr>    <list>      
1 2.Predic logistic   Class  TRUE      maligna benign   <glm>       
2 2.Predic rpart      Class  TRUE      maligna benign   <rpart>     
3 2.Predic ctree      Class  TRUE      maligna benign   <BinaryTr>  
4 2.Predic randomFor Class  TRUE      maligna benign   <rndmFrs.>  
#  with 3 more rows, and 1 more variable: predicted <list>
…
target : character. Name of target variable.

positive : character. Level of positive class of binary classification.

fitted_model : list. Fitted model object by model_ids algorithms

predicted : list. Predicted value by individual model. Each value has a predict_class class object.

performance : list. Calculate metrics by individual model. Each value has a numeric vector.

# Calculate performace metrics.
perf <- run_performance(pred)
perf

# A tibble: 7 x 7
  step    model_id  target positive fitted_model predicted performance
  <chr>   <chr>     <chr>  <chr>    <list>       <list>    <list>     
1 3.Perf logistic  Class  maligna <glm>        <fct [21 <dbl [15]> 
2 3.Perf rpart     Class  maligna <rpart>      <fct [21 <dbl [15]> 
3 3.Perf ctree     Class  maligna <BinaryTr>   <fct [21 <dbl [15]> 
4 3.Perf randomFo Class  maligna <rndmFrs.>   <fct [21 <dbl [15]> 
#  with 3 more rows
…
