alookr vignettes: Classification Modeling
…
For objects created with run_models(), the value of the variable is 1.Fitted.

model_id : model identifiers

target : name of target variable

positive : positive class in target variable

fitted_model : list. Fitted model object by model_ids algorithms

result <- train %>% 
  run_models(target = "Class", positive = "malignant")
result

# A tibble: 7 x 7
  step     model_id    target is_factor positive negative fitted_model
  <chr>    <chr>       <chr>  <lgl>     <chr>    <chr>    <list>      
1 1.Fitted logistic    Class  TRUE      maligna benign   <glm>       
2 1.Fitted rpart       Class  TRUE      maligna benign   <rpart>     
3 1.Fitted ctree       Class  TRUE      maligna benign   <BinaryTr>  
4 1.Fitted randomFore Class  TRUE      maligna benign   <rndmFrs.>  
5 1.Fitted ranger      Class  TRUE      maligna benign   <ranger>    
6 1.Fitted xgboost     Class  TRUE      maligna benign   <xgb.Bstr>  
#  with 1 more row
…
model_id : character. Type of fit model.

target : character. Name of target variable.

positive : character. Level of positive class of binary classification.

fitted_model : list. Fitted model object by model_ids algorithms.

predicted : result of predcit by each models

pred <- result %>%
  run_predict(test)
pred

# A tibble: 7 x 8
  step      model_id   target is_factor positive negative fitted_model
  <chr>     <chr>      <chr>  <lgl>     <chr>    <chr>    <list>      
1 2.Predic logistic   Class  TRUE      maligna benign   <glm>       
2 2.Predic rpart      Class  TRUE      maligna benign   <rpart>     
3 2.Predic ctree      Class  TRUE      maligna benign   <BinaryTr>  
4 2.Predic randomFor Class  TRUE      maligna benign   <rndmFrs.>  
5 2.Predic ranger     Class  TRUE      maligna benign   <ranger>    
6 2.Predic xgboost    Class  TRUE      maligna benign   <xgb.Bstr>  
#  with 1 more row, and 1 more variable: predicted <list>
…
target : character. Name of target variable.

positive : character. Level of positive class of binary classification.

fitted_model : list. Fitted model object by model_ids algorithms

predicted : list. Predicted value by individual model. Each value has a predict_class class object.

performance : list. Calculate metrics by individual model. Each value has a numeric vector.

# Calculate performace metrics.
perf <- run_performance(pred)
perf

# A tibble: 7 x 7
  step    model_id  target positive fitted_model predicted performance
  <chr>   <chr>     <chr>  <chr>    <list>       <list>    <list>     
1 3.Perf logistic  Class  maligna <glm>        <fct [21 <dbl [15]> 
2 3.Perf rpart     Class  maligna <rpart>      <fct [21 <dbl [15]> 
3 3.Perf ctree     Class  maligna <BinaryTr>   <fct [21 <dbl [15]> 
4 3.Perf randomFo Class  maligna <rndmFrs.>   <fct [21 <dbl [15]> 
5 3.Perf ranger    Class  maligna <ranger>     <fct [21 <dbl [15]> 
6 3.Perf xgboost   Class  maligna <xgb.Bstr>   <fct [21 <dbl [15]> 
#  with 1 more row
…
